module gitea.com/xy/activitypub

go 1.18

require (
	git.sr.ht/~mariusor/go-xsd-duration v0.0.0-20220703122237-02e73435a078
	github.com/go-ap/errors v0.0.0-20221115052505-8aaa26f930b4
	github.com/go-ap/jsonld v0.0.0-20221030091449-f2a191312c73
	github.com/valyala/fastjson v1.6.3
)
